{
    "sanluis": [
        {
            "id": 1,
            "name": "Il Panino",
            "city": "San Luis",
            "location": "Pringles 1044",
            "days": "everyday",
            "opentime": "8.30",
            "closetime": "01.00",
            "price": "$$",
            "payby": "credito - debito",
            "bestdishes": "",
            "note": "Limonada artificial",
            "pictures": [
                {
                    "active": true,
                    "url": "images/food/sanluis/sanluis-ilpanino-map.PNG"
                },
                {
                    "active": false,
                    "url": "images/food/sanluis/sanluis-ilpanino-american.PNG"
                },
                {
                    "active": false,
                    "url": "images/food/sanluis/sanluis-ilpanino-fajitas.PNG"
                },
                {
                    "active": false,
                    "url": "images/food/sanluis/sanluis-ilpanino-salad.PNG"
                },
                {
                    "active": false,
                    "url": "images/food/sanluis/sanluis-ilpanino-salad2.PNG"
                }
            ]
        }
    ],
    "sanrafael": [
        {
            "id": 1,
            "name": "El Viejo Bodegón",
            "location": "Hipólito Yrigoyen 2299 - San Rafael",
            "days": "everyday",
            "opentime": "20.00",
            "closetime": "01.00",
            "price": "$",
            "payby": "credito??",
            "bestdishes": "Milanesas, Hamburguesas",
            "note": "Porciones grandes, costo por compartir. Te dan lo que sobra para llevar",
            "pictures": [
                {
                    "active": true,
                    "url": "images/food/sanrafael-elviejobodegon-front.JPG",
                    "caption": ""
                },
                {
                    "active": false,
                    "url": "images/food/sanrafael-elviejobodegon-outside.JPG",
                    "caption": ""
                },
                {
                    "active": false,
                    "url": "images/food/sanrafael-elviejobodegon-milanga.JPG",
                    "caption": ""
                },
                {
                    "active": false,
                    "url": "images/food/sanrafael-elviejobodegon-menuNov17.JPG",
                    "caption": ""
                },
                {
                    "active": false,
                    "url": "images/food/sanrafael-elviejobodegon-pricesNov17.JPG",
                    "caption": ""
                }
            ]
        },
        {
            "id": 2,
            "name": "Merlin Resto",
            "location": "Paseo de Los Ninos 88 - San Rafael",
            "days": "X-J-V-S-D",
            "opentime": "20:30 - 00:00",
            "closetime": "11:00 - 15:30 (Domingo)",
            "price": "$$$",
            "payby": "Debito - Credito",
            "bestdishes": "",
            "note": "",
            "pictures": [
                {
                    "active": true,
                    "url": "images/food/sanrafael-merlin-front.JPG",
                    "caption": ""
                },
                {
                    "active": false,
                    "url": "images/food/sanrafael-merlin-inside.JPG",
                    "caption": ""
                },
                {
                    "active": false,
                    "url": "images/food/sanrafael-merlin-food.JPG",
                    "caption": ""
                },
                {
                    "active": false,
                    "url": "images/food/sanrafael-merlin-food2.JPG",
                    "caption": ""
                },
                {
                    "active": false,
                    "url": "images/food/sanrafael-merlin-food3.JPG",
                    "caption": ""
                },
                {
                    "active": false,
                    "url": "images/food/sanrafael-merlin-food4.JPG",
                    "caption": ""
                }
            ]
        },
        {
            "id": 3,
            "name": "Chef Indoors",
            "location": "Calle Buchardo 1770 - San Rafael",
            "days": "M-X-J-V-S",
            "opentime": "12:30 - 15:00",
            "closetime": "20:30 - 00:00",
            "price": "$$",
            "payby": "",
            "bestdishes": "Lomitos",
            "note": "",
            "pictures": [
                {
                    "active": true,
                    "url": "images/food/sanrafael-chefindoors-front.JPG",
                    "caption": ""
                },
                {
                    "active": false,
                    "url": "images/food/sanrafael-chefindoors-food.JPG",
                    "caption": ""
                },
                {
                    "active": false,
                    "url": "images/food/sanrafael-chefindoors-food2.JPG",
                    "caption": ""
                },
                {
                    "active": false,
                    "url": "images/food/sanrafael-chefindoors-food3.JPG",
                    "caption": ""
                }
            ]
        },
        {
            "id": 4,
            "name": "La Despensa",
            "location": "Ruta 143 y Ruta 144 - San Rafael",
            "days": "X-J-V-S-D",
            "opentime": "21:00 - 23:45",
            "closetime": "12:00 - 15:30 (Jueves a Domingo)",
            "price": "$",
            "payby": "solo cash???",
            "bestdishes": "Ribs, Bondiola braseada recomendable, Brownie con helado",
            "note": "",
            "pictures": [
                {
                    "active": true,
                    "url": "images/food/sanrafael-ladespensa-front.JPG",
                    "caption": ""
                },
                {
                    "active": false,
                    "url": "images/food/sanrafael-ladespensa-outside.JPG",
                    "caption": ""
                },
                {
                    "active": false,
                    "url": "images/food/sanrafael-ladespensa-menu.JPG",
                    "caption": ""
                }
            ]
        }
    ],
    "mendoza": [
        {
            "id": 1,
            "name": "El Mercadito",
            "location": "Villanueva Aristides 521 - Mendoza",
            "days": "everyday",
            "opentime": "11:00",
            "closetime": "00:30",
            "price": "$$",
            "payby": "credit card",
            "bestdishes": "Hamburguesas, Postre Suerte de Limon, Jugos naturales",
            "note": "Pedir hielo para los jugos, Tiempo de espera",
            "pictures": [
                {
                    "active": true,
                    "url": "images/food/mendoza-elmercadillo-front.JPG",
                    "caption": ""
                },
                {
                    "active": false,
                    "url": "images/food/mendoza-elmercadillo-map.JPG",
                    "caption": ""
                },
                {
                    "active": false,
                    "url": "images/food/mendoza-elmercadillo-outside.JPG",
                    "caption": ""
                },
                {
                    "active": false,
                    "url": "images/food/mendoza-elmercadillo-food.JPG",
                    "caption": ""
                },
                {
                    "active": false,
                    "url": "images/food/mendoza-elmercadillo-kiwimelon.JPG",
                    "caption": ""
                },
                {
                    "active": false,
                    "url": "images/food/mendoza-elmercadillo-pasta.JPG",
                    "caption": ""
                },
                {
                    "active": false,
                    "url": "images/food/mendoza-elmercadillo-menusept17.JPG",
                    "caption": ""
                },
                {
                    "active": false,
                    "url": "images/food/mendoza-elmercadillo-menu1.JPG",
                    "caption": ""
                }
            ]
        },
        {
            "id": 2,
            "name": "Burgery",
            "location": "Aristides Villanueva 209 - Mendoza",
            "days": "everyday",
            "opentime": "12:00",
            "closetime": "01:00",
            "price": "$$",
            "payby": "Debito / Credito",
            "bestdishes": "Hamburguesas Bondiola, Cheddar y Panceta, Mayonesa de ajo",
            "note": "",
            "pictures": [
                {
                    "active": true,
                    "url": "images/food/mendoza-burguery-outside.JPG",
                    "caption": ""
                },
                {
                    "active": false,
                    "url": "images/food/mendoza-burguery-place.JPG",
                    "caption": ""
                },
                {
                    "active": false,
                    "url": "images/food/mendoza-burguery-map.JPG",
                    "caption": ""
                },
                {
                    "active": false,
                    "url": "images/food/mendoza-burguery-food1.JPG",
                    "caption": ""
                },
                {
                    "active": false,
                    "url": "images/food/mendoza-burguery-food2.JPG",
                    "caption": ""
                },
                {
                    "active": false,
                    "url": "images/food/mendoza-burguery-food3.JPG",
                    "caption": ""
                },
                {
                    "active": false,
                    "url": "images/food/mendoza-burguery-food4.JPG",
                    "caption": ""
                },
                {
                    "active": false,
                    "url": "images/food/mendoza-burguery-map.JPG",
                    "caption": ""
                }
            ]
        }
    ],
    "riocuarto": [
        {
            "id": 1,
            "name": "Ciclista Deli & Café",
            "location": "Ruta Provincial Numero 30 2910 | Local 3A - Rio Cuarto",
            "days": "L-M-X-J-V-S",
            "opentime": "18:00",
            "closetime": "1:00",
            "price": "$$$$",
            "dishes": null,
            "note": "",
            "pictures": [
                {
                    "active": true,
                    "url": "images/food/riocuarto-food-ciclistadelicafe.JPG",
                    "caption": ""
                },
                {
                    "active": false,
                    "url": "images/food/riocuarto-food-ciclistadelicafe2.JPG",
                    "caption": ""
                },
                {
                    "active": false,
                    "url": "images/food/riocuarto-food-ciclistadelicafe3.JPG",
                    "caption": ""
                },
                {
                    "active": false,
                    "url": "images/food/riocuarto-food-ciclistadelicafe4.JPG",
                    "caption": ""
                },
                {
                    "active": false,
                    "url": "images/food/riocuarto-food-ciclistadelicafe5.JPG",
                    "caption": "Muffins de naranja y chocolate"
                }
            ]
        }
    ]
}
