{
    "name": "Vacas Con Joe",
    "short_name": "VCJ",
    "icons": [
        {
            "src": "images/icons/apple-icon-57x57.png",
            "sizes": "57x57",
            "type": "image/png"
        },
        {
            "src": "images/icons/apple-icon-60x60.png",
            "sizes": "60x60",
            "type": "image/png"
        },
        {
            "src": "images/icons/apple-icon-72x72.png",
            "sizes": "72x72",
            "type": "image/png"
        },
        {
            "src": "images/icons/apple-icon-76x76.png",
            "sizes": "76x76",
            "type": "image/png"
        },
        {
            "src": "images/icons/apple-icon-114x114.png",
            "sizes": "114x114",
            "type": "image/png"
        },
        {
            "src": "images/icons/apple-icon-120x120.png",
            "sizes": "120x120",
            "type": "image/png"
        },
        {
            "src": "images/icons/apple-icon-144x144.png",
            "sizes": "144x144",
            "type": "image/png"
        },
        {
            "src": "images/icons/apple-icon-152x152.png",
            "sizes": "152x152",
            "type": "image/png"
        },
        {
            "src": "images/icons/apple-icon-180x180.png",
            "sizes": "180x180",
            "type": "image/png"
        },
        {
            "src": "images/icons/android-icon-192x192.png",
            "sizes": "192x192",
            "type": "image/png"
        },
        {
            "src": "images/icons/favicon-32x32.png",
            "sizes": "32x32",
            "type": "image/png"
        },
        {
            "src": "images/icons/favicon-96x96.png",
            "sizes": "96x96",
            "type": "image/png"
        },
        {
            "src": "images/icons/favicon-16x16.png",
            "sizes": "16x16",
            "type": "image/png"
        }
    ],
    "start_url": "https://guilleavi89.gitlab.io/Holidays/#!/",
    "display": "standalone",
    "background_color": "#3E4EB8",
    "theme_color": "#2F3BA2"
}