{
    "day": "Día 1 - Miercoles 7",
    "daystarts": "05:00",
    "city": "San Luis",
    "activities": [
        {
            "id": 1,
            "description": "Viaje a San Luis",
            "observation": [
                "Cargar nafta antes de salir, llevar para desayunar y ",
                "cargar mas nafta a mitad de camino."
            ],
            "duration": 9,
            "km": 654,
            "cost": null,
            "pictures": [
                {
                    "active": true,
                    "url": "images/activities/sanluis/sanluis-rosario-map.jpg",
                    "caption": ""
                }
            ]          
        },
        {
            "id": 2,
            "description": "Almorzar en San Luis",
            "food": "sanluis", 
            "observation": [
                "Il Panino - Pringles 1044 "
            ],
            "duration": 1,
            "km": null,
            "cost": 1000,
            "pictures": [
            ]  
        },
        {
            "id": 3,
            "description": "Check in en departamento de San Luis", 
            "hotelId": 1,
            "observation": [
                "Eliana: Ituzaingo 770 - check in 3p.m. - pagar cochera. ",
                "Nos va a atender Javier, llamar una hora antes de llegar. ",
                "Se rompio el aire acondicionado. ", 
                "+54 2661 54 577146 ",
                "+54 2664 57 7146"
            ],
            "duration": 1,
            "km": null,
            "cost": 100,
            "pictures": [
            ]  
        },
        {
            "id": 4,
            "description": "Viajar a El Volcan", 
            "observation": [
            ],
            "duration": 0.5,
            "km": 17,
            "cost": null,
            "pictures": [
                {
                    "active": true,
                    "url": "images/activities/sanluis/sanluis-elvolcan-map.jpg",
                    "caption": ""
                }
            ] 
        },
        {
            "id": 5,
            "description": "El Volcan",            
            "url": "el-volcan",
            "observation": [
            ],
            "duration": 3,
            "km": null,
            "cost": null,
            "pictures": [

            ]  
        },
        {
            "id": 6,
            "description": "Viaje a Potrero de los Funes desde El Volcan",
            "observation": [
            ],
            "duration": 0.25,
            "km": 8,
            "cost": null,
            "pictures": [
                {
                    "active": true,
                    "url": "images/activities/sanluis/sanluis-potrero-map.jpg",
                    "caption": ""
                }
            ]  
        },
        {
            "id": 7,
            "description": "Potrero de los Funes",
            "url": "potrero",
            "observation": [
            ],
            "duration": 2,
            "km": null,
            "cost": null,
            "pictures": [
            ]  
        },
        {
            "id": 8,
            "description": "Volver a San Luis",
            "observation": null,
            "duration": 0.84,
            "km": 40,
            "cost": 140,
            "pictures": [
                {
                    "active": true,
                    "url": "images/activities/sanluis/sanluis-potrero-goback-map.jpg",
                    "caption": ""
                }
            ]  
        },
        {
            "id": 9,
            "description": "Cenar en departamento",
            "observation": [
                "Comprar comida en Naturalmente hasta 23.30 - Pringles 1065"
            ],
            "duration": null,
            "km": null,
            "cost": 500
        },
        {
            "id": 10,
            "description": "Alojamiento en San Luis",
            "observation": [
            ],
            "duration": null,
            "km": null,
            "cost": 1013
        }
    ]
}
