{
    "day": "Día 8 - Miercoles 14",
    "daystarts": "08:00",
    "city": "Mendoza",
    "activities": [
        {
            "id": 1,
            "description": "Desayunar en el departamento",
            "observation": [
            ],
            "duration": 1,
            "km": null,
            "cost": 200,
            "pictures": [
            ]            
        },
        {
            "id": 2,
            "description": "Viajar hasta Reserva Divisadero Largo",
            "observation": [
            ],
            "duration": 0.5,
            "km": 23,
            "cost": null,
            "pictures": [
            ]            
        },
        {
            "id": 3,
            "description": "Reserva Divisadero Largo",
            "url": "divisadero-largo",
            "observation": [
                "9 a 17"
            ],
            "duration": 2,
            "km": null,
            "cost": null,
            "pictures": [
            ]            
        },
        {
            "id": 4,
            "description": "Viajar hasta Reserva Villavicencio",
            "observation": [
            ],
            "duration": 1,
            "km": 55,
            "cost": null,
            "pictures": [
            ]            
        },
        {
            "id": 5,
            "description": "Villavicencio",
            "url": "villavicencio",
            "observation": [
                "9.30 a 18.00"
            ],
            "duration": 2,
            "km": null,
            "cost": 495,
            "pictures": [
            ]            
        },
        {
            "id": 6,
            "description": "Almorzar",
            "food": "mendoza",
            "observation": [
            ],
            "duration": 1,
            "km": null,
            "cost": 1000,
            "pictures": [
            ]            
        },
        {
            "id": 7,
            "description": "Viajar a Uspallata",
            "observation": [
            ],
            "duration": 1.75,
            "km": 57,
            "cost": null,
            "pictures": [
            ]            
        },
        {
            "id": 8,
            "description": "Uspallata",
            "url": "uspallata",
            "observation": [
            ],
            "duration": 3,
            "km": null,
            "cost": null,
            "pictures": [
            ]            
        },
        {
            "id": 9,
            "description": "Volver a Lujan de Cuyo",
            "observation": [
            ],
            "duration": 1.34,
            "km": 108,
            "cost": null,
            "pictures": [
            ]            
        },
        {
            "id":10,
            "description": "Cenar en departamento",
            "observation": [
            ],
            "duration": null,
            "km": null,
            "cost": 500
        },
        {
            "id": 11,
            "description": "Alojamiento en Lujan de Cuyo",
            "observation": [
            ],
            "duration": null,
            "km": null,
            "cost": 845
        }
    ]
}
