{
    "hotels": [
        {
            "id": 1,
            "name": "",
            "location": "San Luis",
            "description": "Patio privado con asador",
            "checkintime": "15:00",
            "checkindate": "7 de Febrero",
            "checkouttime": "10:00",
            "checkoutdate": "8 de Febrero",
            "address": "Ituzaingo 770",
            "contact": "Eliana",
            "phone1": "+54 2661 54 577146",
            "phone2": "+54 2664 57 7146",
            "note": "NOTA: $100 cochera - Desayuno - no hay wifi - aire roto - parrilla",
            "pictures": [
                {
                    "active": true,
                    "url": "images/hotels/san-luis-hotel-patio.jpg",
                    "caption": "Patio con Parrillero"
                },
                {
                    "active": false,
                    "url": "images/hotels/san-luis-hotel-kitchen.jpg",
                    "caption": "Cocina comedor"
                },
                {
                    "active": false,
                    "url": "images/hotels/san-luis-hotel-kitchen-2.jpg",
                    "caption": "Cocina"
                },
                {
                    "active": false,
                    "url": "images/hotels/san-luis-hotel-main-bedroom.jpg",
                    "caption": "Dormitorio 1"
                },
                {
                    "active": false,
                    "url": "images/hotels/san-luis-hotel-secondary-bedroom.jpg",
                    "caption": "Dormitorio 2"
                },
                {
                    "active": false,
                    "url": "images/hotels/san-luis-hotel-bathroom.jpg",
                    "caption": "Baño"
                }
            ]
        },
        {
            "id": 2,
            "name": "Libertad I",
            "location": "San Rafael",
            "description": "Duplex, patio, garage",
            "checkintime": "13:00",
            "checkindate": "8 de Febrero",
            "checkouttime": "10:00",
            "checkoutdate": "12 de Febrero",
            "address": "Libertad 1390",
            "contact": "Santiago",
            "phone1": "+54 2604 57 9909",
            "note": "NOTA: cocina a garrafa - Hay parrilla",
            "pictures": [
                {
                    "active": true,
                    "url": "images/hotels/san-rafael-hotel-garage.jpg",
                    "caption": "Cochera"
                },
                {
                    "active": false,
                    "url": "images/hotels/san-rafael-hotel-patio.jpg",
                    "caption": "Patio"
                },
                {
                    "active": false,
                    "url": "images/hotels/san-rafael-hotel-parrilla.jpg",
                    "caption": "Parrilla"
                },
                {
                    "active": false,
                    "url": "images/hotels/san-rafael-hotel-gallery.jpg",
                    "caption": "Galeria"
                },
                {
                    "active": false,
                    "url": "images/hotels/san-rafael-hotel-livingroom.jpg",
                    "caption": "Living"
                },
                {
                    "active": false,
                    "url": "images/hotels/san-rafael-hotel-tv.jpg",
                    "caption": "TV"
                },
                {
                    "active": false,
                    "url": "images/hotels/san-rafael-hotel-living-dinningroom.jpg",
                    "caption": "Living / Comedor"
                },
                {
                    "active": false,
                    "url": "images/hotels/san-rafael-hotel-diningroom.jpg",
                    "caption": "Comedor"
                },
                {
                    "active": false,
                    "url": "images/hotels/san-rafael-hotel-kitchen.jpg",
                    "caption": "Cocina"
                },
                {
                    "active": false,
                    "url": "images/hotels/san-rafael-hotel-kitchen2.jpg",
                    "caption": "Cocina"
                },
                {
                    "active": false,
                    "url": "images/hotels/san-rafael-hotel-antebaño.jpg",
                    "caption": "Antebaño"
                },
                {
                    "active": false,
                    "url": "images/hotels/san-rafael-hotel-bathroom.jpg",
                    "caption": "Baño"
                },
                {
                    "active": false,
                    "url": "images/hotels/san-rafael-hotel-shower.jpg",
                    "caption": "Ducha"
                },
                {
                    "active": false,
                    "url": "images/hotels/san-rafael-hotel-main-bedroom.jpg",
                    "caption": "Dormitorio 1"
                },
                {
                    "active": false,
                    "url": "images/hotels/san-rafael-hotel-secondary-bedroom.jpg",
                    "caption": "Dormitorio 2"
                }
            ]
        },
        {
            "id": 3,
            "name": "Casita en Carrodilla",
            "location": "Lujan de Cuyo",
            "description": "Barrio tranquilo",
            "checkintime": "15:00",
            "checkindate": "12 de Febrero",
            "checkouttime": "10:00",
            "checkoutdate": "16 de Febrero",
            "address": "Boedo 2100 - Lote 19 - Barrio Portal de Boedo",
            "contact": "Adriana",
            "phone1": "+54 261 341 7449",
            "note": "NOTA: tiene lavarropas",
            "pictures": [
                {
                    "active": true,
                    "url": "images/hotels/mendoza-hotel-map.jpg",
                    "caption": "Como llegar"
                },
                {
                    "active": false,
                    "url": "images/hotels/mendoza-hotel-outside1.jpg",
                    "caption": "Vista exterior"
                },
                {
                    "active": false,
                    "url": "images/hotels/mendoza-hotel-outside2.jpg",
                    "caption": "Vista exterior"
                },
                {
                    "active": false,
                    "url": "images/hotels/mendoza-hotel-outside3.jpg",
                    "caption": "Vista exterior"
                },
                {
                    "active": false,
                    "url": "images/hotels/mendoza-hotel-cocina.jpg",
                    "caption": "Cocina"
                },
                {
                    "active": false,
                    "url": "images/hotels/mendoza-hotel-comedor.jpg",
                    "caption": "Comedor"
                },
                {
                    "active": false,
                    "url": "images/hotels/mendoza-hotel-bathroom.jpg",
                    "caption": "Baño"
                },
                {
                    "active": false,
                    "url": "images/hotels/mendoza-hotel-main-bedroom.jpg",
                    "caption": "Dormitorio 1"
                },
                {
                    "active": false,
                    "url": "images/hotels/mendoza-hotel-main-bedroom2.jpg",
                    "caption": "Dormitorio 1"
                },
                {
                    "active": false,
                    "url": "images/hotels/mendoza-hotel-secondary-bedroom.jpg",
                    "caption": "Dormitorio 2"
                }
            ]
        },
        {
            "id": 4,
            "name": "Departamento Chic 'La Pepa'",
            "location": "Rio Cuarto",
            "description": "Departamento chic",
            "checkintime": "13:00",
            "checkindate": "16 de Febrero",
            "checkouttime": "11:00",
            "checkoutdate": "17 de Febrero",
            "address": "",
            "contact": "Javier",
            "phone1": "+54 93571 53 1589",
            "phone2": "+54 9358 430 0786",
            "note": "NOTA: parque de 1,5 Hectáreas - pileta con solarium - parrilla - horno de barro",
            "pictures": [
                {
                    "active": true,
                    "url": "images/hotels/riocuarto-hotel-outside.jpg",
                    "caption": "Exterior"
                },
                {
                    "active": false,
                    "url": "images/hotels/riocuarto-hotel-pileta.jpg",
                    "caption": "Solarium"
                },
                {
                    "active": false,
                    "url": "images/hotels/riocuarto-hotel-pileta2.jpg",
                    "caption": "Pileta"
                },
                {
                    "active": false,
                    "url": "images/hotels/riocuarto-hotel-hornobarro.jpg",
                    "caption": "Horno de barro"
                },
                {
                    "active": false,
                    "url": "images/hotels/riocuarto-hotel-livingroom.jpg",
                    "caption": "Living"
                },
                {
                    "active": false,
                    "url": "images/hotels/riocuarto-hotel-diningroom.jpg",
                    "caption": "Comedor"
                },
                {
                    "active": false,
                    "url": "images/hotels/riocuarto-hotel-bedroom1.jpg",
                    "caption": "Dormitorio 1"
                },
                {
                    "active": false,
                    "url": "images/hotels/riocuarto-hotel-bathroom.jpg",
                    "caption": "Baño"
                }
            ]
        }
    ]
}
